* Urine Analysis,    Unit,   Unit
Acidity (titrable),20-40 mmol/d,20-40 mEq/d
Ammonia,30-50 mmol/d,30-50 mEq/d
Calcium,< 7.5mmol/d,< 300 mg/d
Specific gravity,1.001- 1.035,
P lt,4.5 - 8 ,
Glucose,0.3 - 1.7 mmol/d,50-300 mg /d
Acetone,none,
Albumin,<30 mg / 24 hrs,
Urobilinogen,0.5 - 1 mg/ dl,
Bilirubin,0.5 - 1mg / dl,
Uric acid ,1.49 - 4.76 mmol / d ,250-800 mg / d
Phosphates,12.9-42mmol / d ,400 - 1300 mg / d 
ca oxalates,0.11 - 0.46 mmol / 24 hrs,9.7 - 40.5 mg / 24hrs 
RBCs ,≤ 2RBCs / HPF,
Pus cells ,♂ 5-8 / HPF   ♀ > 10 / HPF, 
Epithelial cells,≤ 15 - 20  / HPF, 
